{
  "name": "TrackerState",
  "fields": [
    {
      "fieldName": "phase",
      "fieldType": "String"
    },
    {
      "fieldName": "totalVaccines",
      "fieldType": "Integer"
    },
    {
      "fieldName": "phaseDetail",
      "fieldType": "String"
    }
  ],
  "relationships": [
    {
      "relationshipType": "many-to-one",
      "otherEntityName": "tracker",
      "otherEntityRelationshipName": "trackerStates",
      "relationshipName": "tracker",
      "otherEntityField": "id"
    }
  ],
  "changelogDate": "20201228203155",
  "entityTableName": "tracker_state",
  "dto": "mapstruct",
  "pagination": "pagination",
  "service": "serviceImpl",
  "jpaMetamodelFiltering": false,
  "fluentMethods": true,
  "readOnly": true,
  "embedded": false,
  "clientRootFolder": "trackerApp",
  "applications": "*",
  "microserviceName": "trackerApp"
}
